EESchema Schematic File Version 2
LIBS:power
LIBS:device
LIBS:transistors
LIBS:conn
LIBS:linear
LIBS:regul
LIBS:74xx
LIBS:cmos4000
LIBS:adc-dac
LIBS:memory
LIBS:xilinx
LIBS:microcontrollers
LIBS:dsp
LIBS:microchip
LIBS:analog_switches
LIBS:motorola
LIBS:texas
LIBS:intel
LIBS:audio
LIBS:interface
LIBS:digital-audio
LIBS:philips
LIBS:display
LIBS:cypress
LIBS:siliconi
LIBS:opto
LIBS:atmel
LIBS:contrib
LIBS:valves
LIBS:ti
LIBS:rustboard-cache
EELAYER 25 0
EELAYER END
$Descr A4 11693 8268
encoding utf-8
Sheet 1 1
Title ""
Date ""
Rev ""
Comp ""
Comment1 ""
Comment2 ""
Comment3 ""
Comment4 ""
$EndDescr
$Comp
L LED D?
U 1 1 59387456
P 18750 3000
F 0 "D?" H 18750 3100 50  0000 C CNN
F 1 "LED" H 18750 2900 50  0000 C CNN
F 2 "Diodes_SMD:D_0805" H 18750 3000 50  0001 C CNN
F 3 "" H 18750 3000 50  0001 C CNN
	1    18750 3000
	1    0    0    -1  
$EndComp
$Comp
L LED D?
U 1 1 5938745C
P 18750 3300
F 0 "D?" H 18750 3400 50  0000 C CNN
F 1 "LED" H 18750 3200 50  0000 C CNN
F 2 "Diodes_SMD:D_0805" H 18750 3300 50  0001 C CNN
F 3 "" H 18750 3300 50  0001 C CNN
	1    18750 3300
	1    0    0    -1  
$EndComp
$Comp
L LED D?
U 1 1 5938746C
P 18750 3600
F 0 "D?" H 18750 3700 50  0000 C CNN
F 1 "LED" H 18750 3500 50  0000 C CNN
F 2 "Diodes_SMD:D_0805" H 18750 3600 50  0001 C CNN
F 3 "" H 18750 3600 50  0001 C CNN
	1    18750 3600
	1    0    0    -1  
$EndComp
$Comp
L LED D?
U 1 1 59387472
P 18750 3900
F 0 "D?" H 18750 4000 50  0000 C CNN
F 1 "LED" H 18750 3800 50  0000 C CNN
F 2 "Diodes_SMD:D_0805" H 18750 3900 50  0001 C CNN
F 3 "" H 18750 3900 50  0001 C CNN
	1    18750 3900
	1    0    0    -1  
$EndComp
$Comp
L LED D?
U 1 1 59387480
P 18750 4200
F 0 "D?" H 18750 4300 50  0000 C CNN
F 1 "LED" H 18750 4100 50  0000 C CNN
F 2 "Diodes_SMD:D_0805" H 18750 4200 50  0001 C CNN
F 3 "" H 18750 4200 50  0001 C CNN
	1    18750 4200
	1    0    0    -1  
$EndComp
$Comp
L LED D?
U 1 1 59387486
P 18750 4500
F 0 "D?" H 18750 4600 50  0000 C CNN
F 1 "LED" H 18750 4400 50  0000 C CNN
F 2 "Diodes_SMD:D_0805" H 18750 4500 50  0001 C CNN
F 3 "" H 18750 4500 50  0001 C CNN
	1    18750 4500
	1    0    0    -1  
$EndComp
$Comp
L LED D?
U 1 1 59387495
P 18750 4800
F 0 "D?" H 18750 4900 50  0000 C CNN
F 1 "LED" H 18750 4700 50  0000 C CNN
F 2 "Diodes_SMD:D_0805" H 18750 4800 50  0001 C CNN
F 3 "" H 18750 4800 50  0001 C CNN
	1    18750 4800
	1    0    0    -1  
$EndComp
$Comp
L LED D?
U 1 1 5938749B
P 18750 5100
F 0 "D?" H 18750 5200 50  0000 C CNN
F 1 "LED" H 18750 5000 50  0000 C CNN
F 2 "Diodes_SMD:D_0805" H 18750 5100 50  0001 C CNN
F 3 "" H 18750 5100 50  0001 C CNN
	1    18750 5100
	1    0    0    -1  
$EndComp
$Comp
L LED D?
U 1 1 5938801A
P 18250 3000
F 0 "D?" H 18250 3100 50  0000 C CNN
F 1 "LED" H 18250 2900 50  0000 C CNN
F 2 "Diodes_SMD:D_0805" H 18250 3000 50  0001 C CNN
F 3 "" H 18250 3000 50  0001 C CNN
	1    18250 3000
	1    0    0    -1  
$EndComp
$Comp
L LED D?
U 1 1 59388020
P 18250 3300
F 0 "D?" H 18250 3400 50  0000 C CNN
F 1 "LED" H 18250 3200 50  0000 C CNN
F 2 "Diodes_SMD:D_0805" H 18250 3300 50  0001 C CNN
F 3 "" H 18250 3300 50  0001 C CNN
	1    18250 3300
	1    0    0    -1  
$EndComp
$Comp
L LED D?
U 1 1 59388030
P 18250 3600
F 0 "D?" H 18250 3700 50  0000 C CNN
F 1 "LED" H 18250 3500 50  0000 C CNN
F 2 "Diodes_SMD:D_0805" H 18250 3600 50  0001 C CNN
F 3 "" H 18250 3600 50  0001 C CNN
	1    18250 3600
	1    0    0    -1  
$EndComp
$Comp
L LED D?
U 1 1 59388036
P 18250 3900
F 0 "D?" H 18250 4000 50  0000 C CNN
F 1 "LED" H 18250 3800 50  0000 C CNN
F 2 "Diodes_SMD:D_0805" H 18250 3900 50  0001 C CNN
F 3 "" H 18250 3900 50  0001 C CNN
	1    18250 3900
	1    0    0    -1  
$EndComp
$Comp
L LED D?
U 1 1 59388044
P 18250 4200
F 0 "D?" H 18250 4300 50  0000 C CNN
F 1 "LED" H 18250 4100 50  0000 C CNN
F 2 "Diodes_SMD:D_0805" H 18250 4200 50  0001 C CNN
F 3 "" H 18250 4200 50  0001 C CNN
	1    18250 4200
	1    0    0    -1  
$EndComp
$Comp
L LED D?
U 1 1 5938804A
P 18250 4500
F 0 "D?" H 18250 4600 50  0000 C CNN
F 1 "LED" H 18250 4400 50  0000 C CNN
F 2 "Diodes_SMD:D_0805" H 18250 4500 50  0001 C CNN
F 3 "" H 18250 4500 50  0001 C CNN
	1    18250 4500
	1    0    0    -1  
$EndComp
$Comp
L LED D?
U 1 1 59388059
P 18250 4800
F 0 "D?" H 18250 4900 50  0000 C CNN
F 1 "LED" H 18250 4700 50  0000 C CNN
F 2 "Diodes_SMD:D_0805" H 18250 4800 50  0001 C CNN
F 3 "" H 18250 4800 50  0001 C CNN
	1    18250 4800
	1    0    0    -1  
$EndComp
$Comp
L LED D?
U 1 1 5938805F
P 18250 5100
F 0 "D?" H 18250 5200 50  0000 C CNN
F 1 "LED" H 18250 5000 50  0000 C CNN
F 2 "Diodes_SMD:D_0805" H 18250 5100 50  0001 C CNN
F 3 "" H 18250 5100 50  0001 C CNN
	1    18250 5100
	1    0    0    -1  
$EndComp
$Comp
L LED D?
U 1 1 593884EB
P 17750 3000
F 0 "D?" H 17750 3100 50  0000 C CNN
F 1 "LED" H 17750 2900 50  0000 C CNN
F 2 "Diodes_SMD:D_0805" H 17750 3000 50  0001 C CNN
F 3 "" H 17750 3000 50  0001 C CNN
	1    17750 3000
	1    0    0    -1  
$EndComp
$Comp
L LED D?
U 1 1 593884F1
P 17750 3300
F 0 "D?" H 17750 3400 50  0000 C CNN
F 1 "LED" H 17750 3200 50  0000 C CNN
F 2 "Diodes_SMD:D_0805" H 17750 3300 50  0001 C CNN
F 3 "" H 17750 3300 50  0001 C CNN
	1    17750 3300
	1    0    0    -1  
$EndComp
$Comp
L LED D?
U 1 1 59388501
P 17750 3600
F 0 "D?" H 17750 3700 50  0000 C CNN
F 1 "LED" H 17750 3500 50  0000 C CNN
F 2 "Diodes_SMD:D_0805" H 17750 3600 50  0001 C CNN
F 3 "" H 17750 3600 50  0001 C CNN
	1    17750 3600
	1    0    0    -1  
$EndComp
$Comp
L LED D?
U 1 1 59388507
P 17750 3900
F 0 "D?" H 17750 4000 50  0000 C CNN
F 1 "LED" H 17750 3800 50  0000 C CNN
F 2 "Diodes_SMD:D_0805" H 17750 3900 50  0001 C CNN
F 3 "" H 17750 3900 50  0001 C CNN
	1    17750 3900
	1    0    0    -1  
$EndComp
$Comp
L LED D?
U 1 1 59388515
P 17750 4200
F 0 "D?" H 17750 4300 50  0000 C CNN
F 1 "LED" H 17750 4100 50  0000 C CNN
F 2 "Diodes_SMD:D_0805" H 17750 4200 50  0001 C CNN
F 3 "" H 17750 4200 50  0001 C CNN
	1    17750 4200
	1    0    0    -1  
$EndComp
$Comp
L LED D?
U 1 1 5938851B
P 17750 4500
F 0 "D?" H 17750 4600 50  0000 C CNN
F 1 "LED" H 17750 4400 50  0000 C CNN
F 2 "Diodes_SMD:D_0805" H 17750 4500 50  0001 C CNN
F 3 "" H 17750 4500 50  0001 C CNN
	1    17750 4500
	1    0    0    -1  
$EndComp
$Comp
L LED D?
U 1 1 5938852A
P 17750 4800
F 0 "D?" H 17750 4900 50  0000 C CNN
F 1 "LED" H 17750 4700 50  0000 C CNN
F 2 "Diodes_SMD:D_0805" H 17750 4800 50  0001 C CNN
F 3 "" H 17750 4800 50  0001 C CNN
	1    17750 4800
	1    0    0    -1  
$EndComp
$Comp
L LED D?
U 1 1 59388530
P 17750 5100
F 0 "D?" H 17750 5200 50  0000 C CNN
F 1 "LED" H 17750 5000 50  0000 C CNN
F 2 "Diodes_SMD:D_0805" H 17750 5100 50  0001 C CNN
F 3 "" H 17750 5100 50  0001 C CNN
	1    17750 5100
	1    0    0    -1  
$EndComp
$Comp
L LED D?
U 1 1 59388548
P 17250 3000
F 0 "D?" H 17250 3100 50  0000 C CNN
F 1 "LED" H 17250 2900 50  0000 C CNN
F 2 "Diodes_SMD:D_0805" H 17250 3000 50  0001 C CNN
F 3 "" H 17250 3000 50  0001 C CNN
	1    17250 3000
	1    0    0    -1  
$EndComp
$Comp
L LED D?
U 1 1 5938854E
P 17250 3300
F 0 "D?" H 17250 3400 50  0000 C CNN
F 1 "LED" H 17250 3200 50  0000 C CNN
F 2 "Diodes_SMD:D_0805" H 17250 3300 50  0001 C CNN
F 3 "" H 17250 3300 50  0001 C CNN
	1    17250 3300
	1    0    0    -1  
$EndComp
$Comp
L LED D?
U 1 1 5938855E
P 17250 3600
F 0 "D?" H 17250 3700 50  0000 C CNN
F 1 "LED" H 17250 3500 50  0000 C CNN
F 2 "Diodes_SMD:D_0805" H 17250 3600 50  0001 C CNN
F 3 "" H 17250 3600 50  0001 C CNN
	1    17250 3600
	1    0    0    -1  
$EndComp
$Comp
L LED D?
U 1 1 59388564
P 17250 3900
F 0 "D?" H 17250 4000 50  0000 C CNN
F 1 "LED" H 17250 3800 50  0000 C CNN
F 2 "Diodes_SMD:D_0805" H 17250 3900 50  0001 C CNN
F 3 "" H 17250 3900 50  0001 C CNN
	1    17250 3900
	1    0    0    -1  
$EndComp
$Comp
L LED D?
U 1 1 59388572
P 17250 4200
F 0 "D?" H 17250 4300 50  0000 C CNN
F 1 "LED" H 17250 4100 50  0000 C CNN
F 2 "Diodes_SMD:D_0805" H 17250 4200 50  0001 C CNN
F 3 "" H 17250 4200 50  0001 C CNN
	1    17250 4200
	1    0    0    -1  
$EndComp
$Comp
L LED D?
U 1 1 59388578
P 17250 4500
F 0 "D?" H 17250 4600 50  0000 C CNN
F 1 "LED" H 17250 4400 50  0000 C CNN
F 2 "Diodes_SMD:D_0805" H 17250 4500 50  0001 C CNN
F 3 "" H 17250 4500 50  0001 C CNN
	1    17250 4500
	1    0    0    -1  
$EndComp
$Comp
L LED D?
U 1 1 59388587
P 17250 4800
F 0 "D?" H 17250 4900 50  0000 C CNN
F 1 "LED" H 17250 4700 50  0000 C CNN
F 2 "Diodes_SMD:D_0805" H 17250 4800 50  0001 C CNN
F 3 "" H 17250 4800 50  0001 C CNN
	1    17250 4800
	1    0    0    -1  
$EndComp
$Comp
L LED D?
U 1 1 5938858D
P 17250 5100
F 0 "D?" H 17250 5200 50  0000 C CNN
F 1 "LED" H 17250 5000 50  0000 C CNN
F 2 "Diodes_SMD:D_0805" H 17250 5100 50  0001 C CNN
F 3 "" H 17250 5100 50  0001 C CNN
	1    17250 5100
	1    0    0    -1  
$EndComp
$Comp
L LED D?
U 1 1 59388FF3
P 16750 3000
F 0 "D?" H 16750 3100 50  0000 C CNN
F 1 "LED" H 16750 2900 50  0000 C CNN
F 2 "Diodes_SMD:D_0805" H 16750 3000 50  0001 C CNN
F 3 "" H 16750 3000 50  0001 C CNN
	1    16750 3000
	1    0    0    -1  
$EndComp
$Comp
L LED D?
U 1 1 59388FF9
P 16750 3300
F 0 "D?" H 16750 3400 50  0000 C CNN
F 1 "LED" H 16750 3200 50  0000 C CNN
F 2 "Diodes_SMD:D_0805" H 16750 3300 50  0001 C CNN
F 3 "" H 16750 3300 50  0001 C CNN
	1    16750 3300
	1    0    0    -1  
$EndComp
$Comp
L LED D?
U 1 1 59389009
P 16750 3600
F 0 "D?" H 16750 3700 50  0000 C CNN
F 1 "LED" H 16750 3500 50  0000 C CNN
F 2 "Diodes_SMD:D_0805" H 16750 3600 50  0001 C CNN
F 3 "" H 16750 3600 50  0001 C CNN
	1    16750 3600
	1    0    0    -1  
$EndComp
$Comp
L LED D?
U 1 1 5938900F
P 16750 3900
F 0 "D?" H 16750 4000 50  0000 C CNN
F 1 "LED" H 16750 3800 50  0000 C CNN
F 2 "Diodes_SMD:D_0805" H 16750 3900 50  0001 C CNN
F 3 "" H 16750 3900 50  0001 C CNN
	1    16750 3900
	1    0    0    -1  
$EndComp
$Comp
L LED D?
U 1 1 5938901D
P 16750 4200
F 0 "D?" H 16750 4300 50  0000 C CNN
F 1 "LED" H 16750 4100 50  0000 C CNN
F 2 "Diodes_SMD:D_0805" H 16750 4200 50  0001 C CNN
F 3 "" H 16750 4200 50  0001 C CNN
	1    16750 4200
	1    0    0    -1  
$EndComp
$Comp
L LED D?
U 1 1 59389023
P 16750 4500
F 0 "D?" H 16750 4600 50  0000 C CNN
F 1 "LED" H 16750 4400 50  0000 C CNN
F 2 "Diodes_SMD:D_0805" H 16750 4500 50  0001 C CNN
F 3 "" H 16750 4500 50  0001 C CNN
	1    16750 4500
	1    0    0    -1  
$EndComp
$Comp
L LED D?
U 1 1 59389032
P 16750 4800
F 0 "D?" H 16750 4900 50  0000 C CNN
F 1 "LED" H 16750 4700 50  0000 C CNN
F 2 "Diodes_SMD:D_0805" H 16750 4800 50  0001 C CNN
F 3 "" H 16750 4800 50  0001 C CNN
	1    16750 4800
	1    0    0    -1  
$EndComp
$Comp
L LED D?
U 1 1 59389038
P 16750 5100
F 0 "D?" H 16750 5200 50  0000 C CNN
F 1 "LED" H 16750 5000 50  0000 C CNN
F 2 "Diodes_SMD:D_0805" H 16750 5100 50  0001 C CNN
F 3 "" H 16750 5100 50  0001 C CNN
	1    16750 5100
	1    0    0    -1  
$EndComp
$Comp
L LED D?
U 1 1 59389050
P 16250 3000
F 0 "D?" H 16250 3100 50  0000 C CNN
F 1 "LED" H 16250 2900 50  0000 C CNN
F 2 "Diodes_SMD:D_0805" H 16250 3000 50  0001 C CNN
F 3 "" H 16250 3000 50  0001 C CNN
	1    16250 3000
	1    0    0    -1  
$EndComp
$Comp
L LED D?
U 1 1 59389056
P 16250 3300
F 0 "D?" H 16250 3400 50  0000 C CNN
F 1 "LED" H 16250 3200 50  0000 C CNN
F 2 "Diodes_SMD:D_0805" H 16250 3300 50  0001 C CNN
F 3 "" H 16250 3300 50  0001 C CNN
	1    16250 3300
	1    0    0    -1  
$EndComp
$Comp
L LED D?
U 1 1 59389066
P 16250 3600
F 0 "D?" H 16250 3700 50  0000 C CNN
F 1 "LED" H 16250 3500 50  0000 C CNN
F 2 "Diodes_SMD:D_0805" H 16250 3600 50  0001 C CNN
F 3 "" H 16250 3600 50  0001 C CNN
	1    16250 3600
	1    0    0    -1  
$EndComp
$Comp
L LED D?
U 1 1 5938906C
P 16250 3900
F 0 "D?" H 16250 4000 50  0000 C CNN
F 1 "LED" H 16250 3800 50  0000 C CNN
F 2 "Diodes_SMD:D_0805" H 16250 3900 50  0001 C CNN
F 3 "" H 16250 3900 50  0001 C CNN
	1    16250 3900
	1    0    0    -1  
$EndComp
$Comp
L LED D?
U 1 1 5938907A
P 16250 4200
F 0 "D?" H 16250 4300 50  0000 C CNN
F 1 "LED" H 16250 4100 50  0000 C CNN
F 2 "Diodes_SMD:D_0805" H 16250 4200 50  0001 C CNN
F 3 "" H 16250 4200 50  0001 C CNN
	1    16250 4200
	1    0    0    -1  
$EndComp
$Comp
L LED D?
U 1 1 59389080
P 16250 4500
F 0 "D?" H 16250 4600 50  0000 C CNN
F 1 "LED" H 16250 4400 50  0000 C CNN
F 2 "Diodes_SMD:D_0805" H 16250 4500 50  0001 C CNN
F 3 "" H 16250 4500 50  0001 C CNN
	1    16250 4500
	1    0    0    -1  
$EndComp
$Comp
L LED D?
U 1 1 5938908F
P 16250 4800
F 0 "D?" H 16250 4900 50  0000 C CNN
F 1 "LED" H 16250 4700 50  0000 C CNN
F 2 "Diodes_SMD:D_0805" H 16250 4800 50  0001 C CNN
F 3 "" H 16250 4800 50  0001 C CNN
	1    16250 4800
	1    0    0    -1  
$EndComp
$Comp
L LED D?
U 1 1 59389095
P 16250 5100
F 0 "D?" H 16250 5200 50  0000 C CNN
F 1 "LED" H 16250 5000 50  0000 C CNN
F 2 "Diodes_SMD:D_0805" H 16250 5100 50  0001 C CNN
F 3 "" H 16250 5100 50  0001 C CNN
	1    16250 5100
	1    0    0    -1  
$EndComp
$Comp
L LED D?
U 1 1 593890B3
P 15750 3000
F 0 "D?" H 15750 3100 50  0000 C CNN
F 1 "LED" H 15750 2900 50  0000 C CNN
F 2 "Diodes_SMD:D_0805" H 15750 3000 50  0001 C CNN
F 3 "" H 15750 3000 50  0001 C CNN
	1    15750 3000
	1    0    0    -1  
$EndComp
$Comp
L LED D?
U 1 1 593890B9
P 15750 3300
F 0 "D?" H 15750 3400 50  0000 C CNN
F 1 "LED" H 15750 3200 50  0000 C CNN
F 2 "Diodes_SMD:D_0805" H 15750 3300 50  0001 C CNN
F 3 "" H 15750 3300 50  0001 C CNN
	1    15750 3300
	1    0    0    -1  
$EndComp
$Comp
L LED D?
U 1 1 593890C9
P 15750 3600
F 0 "D?" H 15750 3700 50  0000 C CNN
F 1 "LED" H 15750 3500 50  0000 C CNN
F 2 "Diodes_SMD:D_0805" H 15750 3600 50  0001 C CNN
F 3 "" H 15750 3600 50  0001 C CNN
	1    15750 3600
	1    0    0    -1  
$EndComp
$Comp
L LED D?
U 1 1 593890CF
P 15750 3900
F 0 "D?" H 15750 4000 50  0000 C CNN
F 1 "LED" H 15750 3800 50  0000 C CNN
F 2 "Diodes_SMD:D_0805" H 15750 3900 50  0001 C CNN
F 3 "" H 15750 3900 50  0001 C CNN
	1    15750 3900
	1    0    0    -1  
$EndComp
$Comp
L LED D?
U 1 1 593890DD
P 15750 4200
F 0 "D?" H 15750 4300 50  0000 C CNN
F 1 "LED" H 15750 4100 50  0000 C CNN
F 2 "Diodes_SMD:D_0805" H 15750 4200 50  0001 C CNN
F 3 "" H 15750 4200 50  0001 C CNN
	1    15750 4200
	1    0    0    -1  
$EndComp
$Comp
L LED D?
U 1 1 593890E3
P 15750 4500
F 0 "D?" H 15750 4600 50  0000 C CNN
F 1 "LED" H 15750 4400 50  0000 C CNN
F 2 "Diodes_SMD:D_0805" H 15750 4500 50  0001 C CNN
F 3 "" H 15750 4500 50  0001 C CNN
	1    15750 4500
	1    0    0    -1  
$EndComp
$Comp
L LED D?
U 1 1 593890F2
P 15750 4800
F 0 "D?" H 15750 4900 50  0000 C CNN
F 1 "LED" H 15750 4700 50  0000 C CNN
F 2 "Diodes_SMD:D_0805" H 15750 4800 50  0001 C CNN
F 3 "" H 15750 4800 50  0001 C CNN
	1    15750 4800
	1    0    0    -1  
$EndComp
$Comp
L LED D?
U 1 1 593890F8
P 15750 5100
F 0 "D?" H 15750 5200 50  0000 C CNN
F 1 "LED" H 15750 5000 50  0000 C CNN
F 2 "Diodes_SMD:D_0805" H 15750 5100 50  0001 C CNN
F 3 "" H 15750 5100 50  0001 C CNN
	1    15750 5100
	1    0    0    -1  
$EndComp
$Comp
L LED D?
U 1 1 59389110
P 15250 3000
F 0 "D?" H 15250 3100 50  0000 C CNN
F 1 "LED" H 15250 2900 50  0000 C CNN
F 2 "Diodes_SMD:D_0805" H 15250 3000 50  0001 C CNN
F 3 "" H 15250 3000 50  0001 C CNN
	1    15250 3000
	1    0    0    -1  
$EndComp
$Comp
L LED D?
U 1 1 59389116
P 15250 3300
F 0 "D?" H 15250 3400 50  0000 C CNN
F 1 "LED" H 15250 3200 50  0000 C CNN
F 2 "Diodes_SMD:D_0805" H 15250 3300 50  0001 C CNN
F 3 "" H 15250 3300 50  0001 C CNN
	1    15250 3300
	1    0    0    -1  
$EndComp
$Comp
L LED D?
U 1 1 59389126
P 15250 3600
F 0 "D?" H 15250 3700 50  0000 C CNN
F 1 "LED" H 15250 3500 50  0000 C CNN
F 2 "Diodes_SMD:D_0805" H 15250 3600 50  0001 C CNN
F 3 "" H 15250 3600 50  0001 C CNN
	1    15250 3600
	1    0    0    -1  
$EndComp
$Comp
L LED D?
U 1 1 5938912C
P 15250 3900
F 0 "D?" H 15250 4000 50  0000 C CNN
F 1 "LED" H 15250 3800 50  0000 C CNN
F 2 "Diodes_SMD:D_0805" H 15250 3900 50  0001 C CNN
F 3 "" H 15250 3900 50  0001 C CNN
	1    15250 3900
	1    0    0    -1  
$EndComp
$Comp
L LED D?
U 1 1 5938913A
P 15250 4200
F 0 "D?" H 15250 4300 50  0000 C CNN
F 1 "LED" H 15250 4100 50  0000 C CNN
F 2 "Diodes_SMD:D_0805" H 15250 4200 50  0001 C CNN
F 3 "" H 15250 4200 50  0001 C CNN
	1    15250 4200
	1    0    0    -1  
$EndComp
$Comp
L LED D?
U 1 1 59389140
P 15250 4500
F 0 "D?" H 15250 4600 50  0000 C CNN
F 1 "LED" H 15250 4400 50  0000 C CNN
F 2 "Diodes_SMD:D_0805" H 15250 4500 50  0001 C CNN
F 3 "" H 15250 4500 50  0001 C CNN
	1    15250 4500
	1    0    0    -1  
$EndComp
$Comp
L LED D?
U 1 1 5938914F
P 15250 4800
F 0 "D?" H 15250 4900 50  0000 C CNN
F 1 "LED" H 15250 4700 50  0000 C CNN
F 2 "Diodes_SMD:D_0805" H 15250 4800 50  0001 C CNN
F 3 "" H 15250 4800 50  0001 C CNN
	1    15250 4800
	1    0    0    -1  
$EndComp
$Comp
L LED D?
U 1 1 59389155
P 15250 5100
F 0 "D?" H 15250 5200 50  0000 C CNN
F 1 "LED" H 15250 5000 50  0000 C CNN
F 2 "Diodes_SMD:D_0805" H 15250 5100 50  0001 C CNN
F 3 "" H 15250 5100 50  0001 C CNN
	1    15250 5100
	1    0    0    -1  
$EndComp
$Comp
L Q_PMOS_GSD Q?
U 1 1 5939D1D3
P 20750 4750
F 0 "Q?" V 20700 4850 50  0000 L CNN
F 1 "IRLML9301TRPbF" V 21000 4400 50  0000 L CNN
F 2 "TO_SOT_Packages_SMD:SOT-23_Handsoldering" H 20950 4850 50  0001 C CNN
F 3 "" H 20750 4750 50  0001 C CNN
	1    20750 4750
	0    -1   -1   0   
$EndComp
$Comp
L Q_PMOS_GSD Q?
U 1 1 5939E41F
P 20900 4250
F 0 "Q?" V 20850 4350 50  0000 L CNN
F 1 "IRLML9301TRPbF" V 21150 3900 50  0000 L CNN
F 2 "TO_SOT_Packages_SMD:SOT-23_Handsoldering" H 21100 4350 50  0001 C CNN
F 3 "" H 20900 4250 50  0001 C CNN
	1    20900 4250
	0    -1   -1   0   
$EndComp
$Comp
L Q_PMOS_GSD Q?
U 1 1 5939E6CC
P 21050 3750
F 0 "Q?" V 21000 3850 50  0000 L CNN
F 1 "IRLML9301TRPbF" V 21300 3400 50  0000 L CNN
F 2 "TO_SOT_Packages_SMD:SOT-23_Handsoldering" H 21250 3850 50  0001 C CNN
F 3 "" H 21050 3750 50  0001 C CNN
	1    21050 3750
	0    -1   -1   0   
$EndComp
$Comp
L Q_PMOS_GSD Q?
U 1 1 5939E6D2
P 21200 3250
F 0 "Q?" V 21150 3350 50  0000 L CNN
F 1 "IRLML9301TRPbF" V 21450 2900 50  0000 L CNN
F 2 "TO_SOT_Packages_SMD:SOT-23_Handsoldering" H 21400 3350 50  0001 C CNN
F 3 "" H 21200 3250 50  0001 C CNN
	1    21200 3250
	0    -1   -1   0   
$EndComp
$Comp
L Q_PMOS_GSD Q?
U 1 1 5939F19E
P 20250 4600
F 0 "Q?" V 20200 4700 50  0000 L CNN
F 1 "IRLML9301TRPbF" V 20500 4250 50  0000 L CNN
F 2 "TO_SOT_Packages_SMD:SOT-23_Handsoldering" H 20450 4700 50  0001 C CNN
F 3 "" H 20250 4600 50  0001 C CNN
	1    20250 4600
	0    -1   -1   0   
$EndComp
$Comp
L Q_PMOS_GSD Q?
U 1 1 5939F1A4
P 20400 4100
F 0 "Q?" V 20350 4200 50  0000 L CNN
F 1 "IRLML9301TRPbF" V 20650 3750 50  0000 L CNN
F 2 "TO_SOT_Packages_SMD:SOT-23_Handsoldering" H 20600 4200 50  0001 C CNN
F 3 "" H 20400 4100 50  0001 C CNN
	1    20400 4100
	0    -1   -1   0   
$EndComp
$Comp
L Q_PMOS_GSD Q?
U 1 1 5939F1AA
P 20550 3600
F 0 "Q?" V 20500 3700 50  0000 L CNN
F 1 "IRLML9301TRPbF" V 20800 3250 50  0000 L CNN
F 2 "TO_SOT_Packages_SMD:SOT-23_Handsoldering" H 20750 3700 50  0001 C CNN
F 3 "" H 20550 3600 50  0001 C CNN
	1    20550 3600
	0    -1   -1   0   
$EndComp
$Comp
L Q_PMOS_GSD Q?
U 1 1 5939F1B0
P 20700 3100
F 0 "Q?" V 20650 3200 50  0000 L CNN
F 1 "IRLML9301TRPbF" V 20950 2750 50  0000 L CNN
F 2 "TO_SOT_Packages_SMD:SOT-23_Handsoldering" H 20900 3200 50  0001 C CNN
F 3 "" H 20700 3100 50  0001 C CNN
	1    20700 3100
	0    -1   -1   0   
$EndComp
$Comp
L 74HC595 U?
U 1 1 593A9D62
P 22300 5450
F 0 "U?" H 22450 6050 50  0000 C CNN
F 1 "74HC595" H 22300 4850 50  0000 C CNN
F 2 "" H 22300 5450 50  0001 C CNN
F 3 "" H 22300 5450 50  0001 C CNN
	1    22300 5450
	-1   0    0    1   
$EndComp
Wire Wire Line
	18550 3000 18600 3000
Wire Wire Line
	18600 3300 18550 3300
Wire Wire Line
	18950 3150 18950 3000
Wire Wire Line
	15450 3150 18950 3150
Connection ~ 18950 3000
Wire Wire Line
	18950 3450 18950 3300
Wire Wire Line
	15450 3450 18950 3450
Connection ~ 18950 3300
Wire Wire Line
	18550 3000 18550 5700
Connection ~ 18550 3300
Wire Wire Line
	18550 3600 18600 3600
Wire Wire Line
	18600 3900 18550 3900
Wire Wire Line
	18950 3750 18950 3600
Connection ~ 18950 3600
Wire Wire Line
	18950 4050 18950 3900
Wire Wire Line
	15450 4050 18950 4050
Connection ~ 18950 3900
Connection ~ 18550 3900
Wire Wire Line
	18550 4200 18600 4200
Wire Wire Line
	18600 4500 18550 4500
Wire Wire Line
	18950 4350 18950 4200
Wire Wire Line
	15450 4350 18950 4350
Connection ~ 18950 4200
Wire Wire Line
	18950 4650 18950 4500
Wire Wire Line
	15450 4650 18950 4650
Connection ~ 18950 4500
Connection ~ 18550 4500
Wire Wire Line
	18550 4800 18600 4800
Wire Wire Line
	18600 5100 18550 5100
Wire Wire Line
	18950 4950 18950 4800
Connection ~ 18950 4800
Wire Wire Line
	18950 5250 18950 5100
Wire Wire Line
	15450 5250 18950 5250
Connection ~ 18950 5100
Connection ~ 18550 5100
Wire Wire Line
	15450 3750 18950 3750
Wire Wire Line
	18900 3300 19050 3300
Wire Wire Line
	18900 3600 19100 3600
Wire Wire Line
	18900 3900 19150 3900
Wire Wire Line
	18900 4200 19200 4200
Wire Wire Line
	18900 4500 19250 4500
Wire Wire Line
	18900 4800 19300 4800
Wire Wire Line
	18900 5100 19350 5100
Wire Wire Line
	18050 3000 18100 3000
Wire Wire Line
	18100 3300 18050 3300
Wire Wire Line
	18450 3150 18450 3000
Connection ~ 18450 3000
Wire Wire Line
	18450 3450 18450 3300
Connection ~ 18450 3300
Wire Wire Line
	18050 3000 18050 5650
Connection ~ 18050 3300
Wire Wire Line
	18050 3600 18100 3600
Wire Wire Line
	18100 3900 18050 3900
Wire Wire Line
	18450 3750 18450 3600
Connection ~ 18450 3600
Wire Wire Line
	18450 4050 18450 3900
Connection ~ 18450 3900
Connection ~ 18050 3900
Wire Wire Line
	18050 4200 18100 4200
Wire Wire Line
	18100 4500 18050 4500
Wire Wire Line
	18450 4350 18450 4200
Connection ~ 18450 4200
Wire Wire Line
	18450 4650 18450 4500
Connection ~ 18450 4500
Connection ~ 18050 4500
Wire Wire Line
	18050 4800 18100 4800
Wire Wire Line
	18100 5100 18050 5100
Wire Wire Line
	18450 4950 18450 4800
Connection ~ 18450 4800
Wire Wire Line
	18450 5250 18450 5100
Connection ~ 18450 5100
Connection ~ 18050 5100
Wire Wire Line
	18450 3000 18400 3000
Wire Wire Line
	18450 3300 18400 3300
Wire Wire Line
	18450 3600 18400 3600
Wire Wire Line
	18450 3900 18400 3900
Wire Wire Line
	18450 4200 18400 4200
Wire Wire Line
	18450 4500 18400 4500
Wire Wire Line
	18450 4800 18400 4800
Wire Wire Line
	18450 5100 18400 5100
Connection ~ 18550 3600
Connection ~ 18050 3600
Connection ~ 18050 4200
Connection ~ 18550 4200
Connection ~ 18550 4800
Connection ~ 18050 4800
Wire Wire Line
	17550 3000 17600 3000
Wire Wire Line
	17600 3300 17550 3300
Wire Wire Line
	17950 3150 17950 3000
Connection ~ 17950 3000
Wire Wire Line
	17950 3450 17950 3300
Connection ~ 17950 3300
Wire Wire Line
	17550 3000 17550 5600
Connection ~ 17550 3300
Wire Wire Line
	17550 3600 17600 3600
Wire Wire Line
	17600 3900 17550 3900
Wire Wire Line
	17950 3750 17950 3600
Connection ~ 17950 3600
Wire Wire Line
	17950 4050 17950 3900
Connection ~ 17950 3900
Connection ~ 17550 3900
Wire Wire Line
	17550 4200 17600 4200
Wire Wire Line
	17600 4500 17550 4500
Wire Wire Line
	17950 4350 17950 4200
Connection ~ 17950 4200
Wire Wire Line
	17950 4650 17950 4500
Connection ~ 17950 4500
Connection ~ 17550 4500
Wire Wire Line
	17550 4800 17600 4800
Wire Wire Line
	17600 5100 17550 5100
Wire Wire Line
	17950 4950 17950 4800
Connection ~ 17950 4800
Wire Wire Line
	17950 5250 17950 5100
Connection ~ 17950 5100
Connection ~ 17550 5100
Wire Wire Line
	17950 3000 17900 3000
Wire Wire Line
	17950 3300 17900 3300
Wire Wire Line
	17950 3600 17900 3600
Wire Wire Line
	17950 3900 17900 3900
Wire Wire Line
	17950 4200 17900 4200
Wire Wire Line
	17950 4500 17900 4500
Wire Wire Line
	17950 4800 17900 4800
Wire Wire Line
	17950 5100 17900 5100
Wire Wire Line
	17050 3000 17100 3000
Wire Wire Line
	17100 3300 17050 3300
Wire Wire Line
	17450 3150 17450 3000
Connection ~ 17450 3000
Wire Wire Line
	17450 3450 17450 3300
Connection ~ 17450 3300
Wire Wire Line
	17050 3000 17050 5550
Connection ~ 17050 3300
Wire Wire Line
	17050 3600 17100 3600
Wire Wire Line
	17100 3900 17050 3900
Wire Wire Line
	17450 3750 17450 3600
Connection ~ 17450 3600
Wire Wire Line
	17450 4050 17450 3900
Connection ~ 17450 3900
Connection ~ 17050 3900
Wire Wire Line
	17050 4200 17100 4200
Wire Wire Line
	17100 4500 17050 4500
Wire Wire Line
	17450 4350 17450 4200
Connection ~ 17450 4200
Wire Wire Line
	17450 4650 17450 4500
Connection ~ 17450 4500
Connection ~ 17050 4500
Wire Wire Line
	17050 4800 17100 4800
Wire Wire Line
	17100 5100 17050 5100
Wire Wire Line
	17450 4950 17450 4800
Connection ~ 17450 4800
Wire Wire Line
	17450 5250 17450 5100
Connection ~ 17450 5100
Connection ~ 17050 5100
Wire Wire Line
	17450 3000 17400 3000
Wire Wire Line
	17450 3300 17400 3300
Wire Wire Line
	17450 3600 17400 3600
Wire Wire Line
	17450 3900 17400 3900
Wire Wire Line
	17450 4200 17400 4200
Wire Wire Line
	17450 4500 17400 4500
Wire Wire Line
	17450 4800 17400 4800
Wire Wire Line
	17450 5100 17400 5100
Connection ~ 17550 3600
Connection ~ 17050 3600
Connection ~ 17050 4200
Connection ~ 17550 4200
Connection ~ 17550 4800
Connection ~ 17050 4800
Wire Wire Line
	16550 3000 16600 3000
Wire Wire Line
	16600 3300 16550 3300
Wire Wire Line
	16950 3150 16950 3000
Connection ~ 16950 3000
Wire Wire Line
	16950 3450 16950 3300
Connection ~ 16950 3300
Wire Wire Line
	16550 3000 16550 5500
Connection ~ 16550 3300
Wire Wire Line
	16550 3600 16600 3600
Wire Wire Line
	16600 3900 16550 3900
Wire Wire Line
	16950 3750 16950 3600
Connection ~ 16950 3600
Wire Wire Line
	16950 4050 16950 3900
Connection ~ 16950 3900
Connection ~ 16550 3900
Wire Wire Line
	16550 4200 16600 4200
Wire Wire Line
	16600 4500 16550 4500
Wire Wire Line
	16950 4350 16950 4200
Connection ~ 16950 4200
Wire Wire Line
	16950 4650 16950 4500
Connection ~ 16950 4500
Connection ~ 16550 4500
Wire Wire Line
	16550 4800 16600 4800
Wire Wire Line
	16600 5100 16550 5100
Wire Wire Line
	16950 4950 16950 4800
Connection ~ 16950 4800
Wire Wire Line
	16950 5250 16950 5100
Connection ~ 16950 5100
Connection ~ 16550 5100
Wire Wire Line
	16950 3000 16900 3000
Wire Wire Line
	16950 3300 16900 3300
Wire Wire Line
	16950 3600 16900 3600
Wire Wire Line
	16950 3900 16900 3900
Wire Wire Line
	16950 4200 16900 4200
Wire Wire Line
	16950 4500 16900 4500
Wire Wire Line
	16950 4800 16900 4800
Wire Wire Line
	16950 5100 16900 5100
Wire Wire Line
	16050 3000 16100 3000
Wire Wire Line
	16100 3300 16050 3300
Wire Wire Line
	16450 3150 16450 3000
Connection ~ 16450 3000
Wire Wire Line
	16450 3450 16450 3300
Connection ~ 16450 3300
Wire Wire Line
	16050 3000 16050 5450
Connection ~ 16050 3300
Wire Wire Line
	16050 3600 16100 3600
Wire Wire Line
	16100 3900 16050 3900
Wire Wire Line
	16450 3750 16450 3600
Connection ~ 16450 3600
Wire Wire Line
	16450 4050 16450 3900
Connection ~ 16450 3900
Connection ~ 16050 3900
Wire Wire Line
	16050 4200 16100 4200
Wire Wire Line
	16100 4500 16050 4500
Wire Wire Line
	16450 4350 16450 4200
Connection ~ 16450 4200
Wire Wire Line
	16450 4650 16450 4500
Connection ~ 16450 4500
Connection ~ 16050 4500
Wire Wire Line
	16050 4800 16100 4800
Wire Wire Line
	16100 5100 16050 5100
Wire Wire Line
	16450 4950 16450 4800
Connection ~ 16450 4800
Wire Wire Line
	16450 5250 16450 5100
Connection ~ 16450 5100
Connection ~ 16050 5100
Wire Wire Line
	16450 3000 16400 3000
Wire Wire Line
	16450 3300 16400 3300
Wire Wire Line
	16450 3600 16400 3600
Wire Wire Line
	16450 3900 16400 3900
Wire Wire Line
	16450 4200 16400 4200
Wire Wire Line
	16450 4500 16400 4500
Wire Wire Line
	16450 4800 16400 4800
Wire Wire Line
	16450 5100 16400 5100
Connection ~ 16550 3600
Connection ~ 16050 3600
Connection ~ 16050 4200
Connection ~ 16550 4200
Connection ~ 16550 4800
Connection ~ 16050 4800
Wire Wire Line
	15550 3000 15600 3000
Wire Wire Line
	15600 3300 15550 3300
Wire Wire Line
	15950 3150 15950 3000
Connection ~ 15950 3000
Wire Wire Line
	15950 3450 15950 3300
Connection ~ 15950 3300
Wire Wire Line
	15550 3000 15550 5400
Connection ~ 15550 3300
Wire Wire Line
	15550 3600 15600 3600
Wire Wire Line
	15600 3900 15550 3900
Wire Wire Line
	15950 3750 15950 3600
Connection ~ 15950 3600
Wire Wire Line
	15950 4050 15950 3900
Connection ~ 15950 3900
Connection ~ 15550 3900
Wire Wire Line
	15550 4200 15600 4200
Wire Wire Line
	15600 4500 15550 4500
Wire Wire Line
	15950 4350 15950 4200
Connection ~ 15950 4200
Wire Wire Line
	15950 4650 15950 4500
Connection ~ 15950 4500
Connection ~ 15550 4500
Wire Wire Line
	15550 4800 15600 4800
Wire Wire Line
	15600 5100 15550 5100
Wire Wire Line
	15950 4950 15950 4800
Connection ~ 15950 4800
Wire Wire Line
	15950 5250 15950 5100
Connection ~ 15950 5100
Connection ~ 15550 5100
Wire Wire Line
	15950 3000 15900 3000
Wire Wire Line
	15950 3300 15900 3300
Wire Wire Line
	15950 3600 15900 3600
Wire Wire Line
	15950 3900 15900 3900
Wire Wire Line
	15950 4200 15900 4200
Wire Wire Line
	15950 4500 15900 4500
Wire Wire Line
	15950 4800 15900 4800
Wire Wire Line
	15950 5100 15900 5100
Wire Wire Line
	15050 3000 15100 3000
Wire Wire Line
	15100 3300 15050 3300
Wire Wire Line
	15450 3150 15450 3000
Connection ~ 15450 3000
Wire Wire Line
	15450 3450 15450 3300
Connection ~ 15450 3300
Connection ~ 15050 3300
Wire Wire Line
	15050 3600 15100 3600
Wire Wire Line
	15100 3900 15050 3900
Wire Wire Line
	15450 3750 15450 3600
Connection ~ 15450 3600
Wire Wire Line
	15450 4050 15450 3900
Connection ~ 15450 3900
Connection ~ 15050 3900
Wire Wire Line
	15050 4200 15100 4200
Wire Wire Line
	15100 4500 15050 4500
Wire Wire Line
	15450 4350 15450 4200
Connection ~ 15450 4200
Wire Wire Line
	15450 4650 15450 4500
Connection ~ 15450 4500
Connection ~ 15050 4500
Wire Wire Line
	15050 4800 15100 4800
Wire Wire Line
	15100 5100 15050 5100
Wire Wire Line
	15450 4950 15450 4800
Connection ~ 15450 4800
Wire Wire Line
	15450 5250 15450 5100
Connection ~ 15450 5100
Connection ~ 15050 5100
Wire Wire Line
	15450 3000 15400 3000
Wire Wire Line
	15450 3300 15400 3300
Wire Wire Line
	15450 3600 15400 3600
Wire Wire Line
	15450 3900 15400 3900
Wire Wire Line
	15450 4200 15400 4200
Wire Wire Line
	15450 4500 15400 4500
Wire Wire Line
	15450 4800 15400 4800
Wire Wire Line
	15450 5100 15400 5100
Connection ~ 15550 3600
Connection ~ 15050 3600
Connection ~ 15050 4200
Connection ~ 15550 4200
Connection ~ 15550 4800
Connection ~ 15050 4800
Connection ~ 15950 5250
Connection ~ 15950 4950
Connection ~ 15950 4650
Connection ~ 16450 4650
Connection ~ 16450 4950
Connection ~ 16450 5250
Connection ~ 15950 3150
Connection ~ 15950 3450
Connection ~ 15950 3750
Connection ~ 15950 4050
Connection ~ 15950 4350
Connection ~ 16450 3150
Connection ~ 16450 3450
Connection ~ 16450 3750
Connection ~ 16450 4050
Connection ~ 16450 4350
Connection ~ 18450 5250
Connection ~ 18450 3150
Connection ~ 18450 3450
Connection ~ 18450 3750
Connection ~ 18450 4050
Connection ~ 18450 4350
Connection ~ 18450 4650
Connection ~ 18450 4950
Connection ~ 17950 5250
Connection ~ 17450 5250
Connection ~ 16950 5250
Connection ~ 16950 4950
Connection ~ 17450 4950
Connection ~ 17950 4950
Connection ~ 17950 4650
Connection ~ 17450 4650
Connection ~ 16950 4650
Connection ~ 16950 4350
Connection ~ 16950 4050
Connection ~ 16950 3750
Connection ~ 16950 3450
Connection ~ 16950 3150
Connection ~ 17450 3150
Connection ~ 17450 3450
Connection ~ 17450 3750
Connection ~ 17450 4050
Connection ~ 17950 4050
Connection ~ 17950 3750
Connection ~ 17950 3450
Connection ~ 17950 3150
Wire Wire Line
	19050 3300 19050 3050
Wire Wire Line
	19050 3050 19900 3050
Wire Wire Line
	19100 3600 19100 3100
Wire Wire Line
	19100 3100 19850 3100
Wire Wire Line
	19150 3900 19150 3150
Wire Wire Line
	19150 3150 19800 3150
Wire Wire Line
	19200 4200 19200 3200
Wire Wire Line
	19200 3200 19750 3200
Wire Wire Line
	19250 4500 19250 3250
Wire Wire Line
	19250 3250 19700 3250
Wire Wire Line
	19300 4800 19300 3300
Wire Wire Line
	19300 3300 19650 3300
Wire Wire Line
	19350 5100 19350 3350
Wire Wire Line
	19350 3350 19600 3350
Wire Wire Line
	15050 3000 15050 5350
Wire Wire Line
	15450 4950 18950 4950
Wire Wire Line
	19600 4650 20550 4650
Wire Wire Line
	19650 4500 20050 4500
Wire Wire Line
	19700 4150 20700 4150
Wire Wire Line
	19750 4000 20200 4000
Wire Wire Line
	19800 3650 20850 3650
Wire Wire Line
	19850 3500 20350 3500
Wire Wire Line
	21000 3150 19900 3150
Wire Wire Line
	18900 3000 20500 3000
Wire Wire Line
	20950 4650 21400 4650
Wire Wire Line
	21400 4650 21400 3000
Wire Wire Line
	21250 3650 21400 3650
Connection ~ 21400 3650
Wire Wire Line
	21400 3000 20900 3000
Connection ~ 21400 3150
Wire Wire Line
	20750 3500 21400 3500
Connection ~ 21400 3500
Wire Wire Line
	20600 4000 21400 4000
Connection ~ 21400 4000
Wire Wire Line
	21100 4150 21400 4150
Connection ~ 21400 4150
Wire Wire Line
	20450 4500 21400 4500
Connection ~ 21400 4500
Wire Wire Line
	20250 5300 20250 4800
Wire Wire Line
	20400 5500 20400 4300
Wire Wire Line
	20550 5700 20550 3800
Wire Wire Line
	20700 5900 20700 3300
Wire Wire Line
	20900 5400 20900 4450
Wire Wire Line
	21050 5600 21050 3950
Wire Wire Line
	21200 5800 21200 3450
Wire Wire Line
	20750 4950 20750 5200
Wire Wire Line
	20750 5200 21600 5200
Wire Wire Line
	20250 5300 21600 5300
Wire Wire Line
	20900 5400 21600 5400
Wire Wire Line
	20400 5500 21600 5500
Wire Wire Line
	21050 5600 21600 5600
Wire Wire Line
	20550 5700 21600 5700
Wire Wire Line
	21200 5800 21600 5800
Wire Wire Line
	20700 5900 21600 5900
Wire Wire Line
	19900 3150 19900 3050
Wire Wire Line
	19850 3100 19850 3500
Wire Wire Line
	19800 3150 19800 3650
Wire Wire Line
	19750 3200 19750 4000
Wire Wire Line
	19700 3250 19700 4150
Wire Wire Line
	19650 3300 19650 4500
Wire Wire Line
	19600 3350 19600 4650
$Comp
L R_Small R?
U 1 1 5939BCB4
P 14500 6100
F 0 "R?" V 14500 6050 50  0000 L CNN
F 1 "100" V 14550 6050 50  0000 L CNN
F 2 "Resistors_SMD:R_2010_HandSoldering" H 14500 6100 50  0001 C CNN
F 3 "" H 14500 6100 50  0001 C CNN
	1    14500 6100
	0    -1   -1   0   
$EndComp
$Comp
L R_Small R?
U 1 1 5939BCAE
P 14500 5950
F 0 "R?" V 14500 5900 50  0000 L CNN
F 1 "100" V 14550 5900 50  0000 L CNN
F 2 "Resistors_SMD:R_2010_HandSoldering" H 14500 5950 50  0001 C CNN
F 3 "" H 14500 5950 50  0001 C CNN
	1    14500 5950
	0    -1   -1   0   
$EndComp
$Comp
L R_Small R?
U 1 1 5939BCA8
P 14500 5800
F 0 "R?" V 14500 5750 50  0000 L CNN
F 1 "100" V 14550 5750 50  0000 L CNN
F 2 "Resistors_SMD:R_2010_HandSoldering" H 14500 5800 50  0001 C CNN
F 3 "" H 14500 5800 50  0001 C CNN
	1    14500 5800
	0    -1   -1   0   
$EndComp
$Comp
L R_Small R?
U 1 1 5939BCA2
P 14500 5650
F 0 "R?" V 14500 5600 50  0000 L CNN
F 1 "100" V 14550 5600 50  0000 L CNN
F 2 "Resistors_SMD:R_2010_HandSoldering" H 14500 5650 50  0001 C CNN
F 3 "" H 14500 5650 50  0001 C CNN
	1    14500 5650
	0    -1   -1   0   
$EndComp
$Comp
L R_Small R?
U 1 1 5939BB08
P 14500 5500
F 0 "R?" V 14500 5450 50  0000 L CNN
F 1 "100" V 14550 5450 50  0000 L CNN
F 2 "Resistors_SMD:R_2010_HandSoldering" H 14500 5500 50  0001 C CNN
F 3 "" H 14500 5500 50  0001 C CNN
	1    14500 5500
	0    -1   -1   0   
$EndComp
$Comp
L R_Small R?
U 1 1 5939BB02
P 14500 5350
F 0 "R?" V 14500 5300 50  0000 L CNN
F 1 "100" V 14550 5300 50  0000 L CNN
F 2 "Resistors_SMD:R_2010_HandSoldering" H 14500 5350 50  0001 C CNN
F 3 "" H 14500 5350 50  0001 C CNN
	1    14500 5350
	0    -1   -1   0   
$EndComp
$Comp
L R_Small R?
U 1 1 5939B97D
P 14500 5200
F 0 "R?" V 14500 5150 50  0000 L CNN
F 1 "100" V 14550 5150 50  0000 L CNN
F 2 "Resistors_SMD:R_2010_HandSoldering" H 14500 5200 50  0001 C CNN
F 3 "" H 14500 5200 50  0001 C CNN
	1    14500 5200
	0    -1   -1   0   
$EndComp
Wire Wire Line
	14200 6100 14200 5900
Wire Wire Line
	14400 6100 14200 6100
Wire Wire Line
	14250 5950 14400 5950
Wire Wire Line
	14250 5800 14250 5950
Wire Wire Line
	14300 5800 14400 5800
Wire Wire Line
	14300 5700 14300 5800
Wire Wire Line
	14250 5050 14400 5050
Wire Wire Line
	14250 5200 14250 5050
Wire Wire Line
	14300 5200 14400 5200
Wire Wire Line
	14300 5300 14300 5200
Wire Wire Line
	14350 5350 14350 5400
Wire Wire Line
	14400 5350 14350 5350
Wire Wire Line
	14350 5650 14400 5650
Wire Wire Line
	14350 5600 14350 5650
Wire Wire Line
	13700 5200 14250 5200
Wire Wire Line
	13700 5300 14300 5300
Wire Wire Line
	13700 5400 14350 5400
Wire Wire Line
	13700 5500 14400 5500
Wire Wire Line
	13950 5700 14300 5700
Wire Wire Line
	14000 5800 14250 5800
Wire Wire Line
	14050 5900 14200 5900
Wire Wire Line
	14050 6100 14050 5900
Wire Wire Line
	12600 6100 14050 6100
Wire Wire Line
	12600 5200 12600 6100
Wire Wire Line
	12900 5200 12600 5200
Wire Wire Line
	14000 6050 14000 5800
Wire Wire Line
	12650 6050 14000 6050
Wire Wire Line
	12650 5300 12650 6050
Wire Wire Line
	12900 5300 12650 5300
Wire Wire Line
	12700 5400 12900 5400
Wire Wire Line
	12700 6000 12700 5400
Wire Wire Line
	13950 6000 12700 6000
Wire Wire Line
	13950 5700 13950 6000
Wire Wire Line
	13900 5600 14350 5600
Wire Wire Line
	13900 5950 13900 5600
Wire Wire Line
	12750 5950 13900 5950
Wire Wire Line
	12750 5500 12750 5950
Wire Wire Line
	12900 5500 12750 5500
Wire Wire Line
	14800 5050 14600 5050
Wire Wire Line
	14800 5350 14800 5050
Wire Wire Line
	14750 5200 14600 5200
Wire Wire Line
	14750 5400 14750 5200
Wire Wire Line
	14700 5350 14600 5350
Wire Wire Line
	14700 5450 14700 5350
Wire Wire Line
	14850 6100 14850 5700
Wire Wire Line
	14600 6100 14850 6100
Wire Wire Line
	14800 5950 14600 5950
Wire Wire Line
	14800 5650 14800 5950
Wire Wire Line
	14750 5800 14750 5600
Wire Wire Line
	14600 5800 14750 5800
Wire Wire Line
	14700 5650 14600 5650
Wire Wire Line
	14700 5550 14700 5650
Wire Wire Line
	15050 5350 14800 5350
Wire Wire Line
	18550 5700 14850 5700
Wire Wire Line
	18050 5650 14800 5650
Wire Wire Line
	17550 5600 14750 5600
Wire Wire Line
	17050 5550 14700 5550
Wire Wire Line
	16550 5500 14600 5500
Wire Wire Line
	16050 5450 14700 5450
Wire Wire Line
	15550 5400 14750 5400
$Comp
L R_Small R?
U 1 1 593944FA
P 14500 5050
F 0 "R?" V 14500 5000 50  0000 L CNN
F 1 "100" V 14550 5000 50  0000 L CNN
F 2 "Resistors_SMD:R_2010_HandSoldering" H 14500 5050 50  0001 C CNN
F 3 "" H 14500 5050 50  0001 C CNN
	1    14500 5050
	0    -1   -1   0   
$EndComp
$Comp
L TPIC6C595 U?
U 1 1 593918DD
P 13300 5350
F 0 "U?" H 13300 4850 50  0000 C CNN
F 1 "TPIC6C595" H 13300 5850 50  0000 C CNN
F 2 "" H 13300 5350 60  0000 C CNN
F 3 "" H 13300 5350 60  0000 C CNN
	1    13300 5350
	-1   0    0    -1  
$EndComp
$EndSCHEMATC
